…
    ## NULL

``` r
emploi.raw %>%
  select(-Population) %>%
  group_by(Annee, Trimestre) %>%
  summarise(
    across(Sexe:Apprentissage, n_distinct)
  )
```

    ## # A tibble: 107 × 7
    ## # Groups:   Annee [51]
    ##    Annee Trimestre  Sexe   Age Activite Diplome Apprentissage
    ##    <dbl>     <dbl> <int> <int>    <int>   <int>         <int>
    ##  1  1971        NA     2   100        3       8             1
    ##  2  1972        NA     2   100        3       8             1
    ##  3  1973        NA     2   100        3       3             1
    ##  4  1974        NA     2   100        3       8             1
    ##  5  1975        NA     2   100        4       8             3
    ##  6  1976        NA     2   100        4       8             3
    ##  7  1977        NA     2   100        4       8             3
    ##  8  1978        NA     2   100        4       8             3
    ##  9  1979        NA     2   100        4       8             3
    ## 10  1980        NA     2   100        4       8             3
    ## # … with 97 more rows
…
``` r
emploi %>% 
  #filter(AgeQ == 20) %>%
  group_by(Annee) %>%
  summarise(pop = sum(Population))
```

    ## # A tibble: 51 × 2
    ##    Annee      pop
    ##    <dbl>    <dbl>
    ##  1  1971 49662920
    ##  2  1972 50091949
    ##  3  1973 50531639
    ##  4  1974 50867658
    ##  5  1975 51078604
    ##  6  1976 51222160
    ##  7  1977 51279355
    ##  8  1978 51481299
    ##  9  1979 51613781
    ## 10  1980 51825258
    ## # … with 41 more rows
…
